0219-№986070
0256-№175717
0273-№907319
0322-№133769
0355-№096578
0438-№462239
0476-№078943
0507-№949145
0569-№580775
0625-№588819
0859-№071239
0951-№065273
1028-№656515
1096-№345779
1133-№752307
1135-№025951
1232-№123454
1244-№632232
1265-№198784
1567-№759525
1608-№991771
1681-№558279
1832-№649189
1985-№800486
2042-№410006
2074-№056232
2299-№719660
2391-№333213
2458-№780064
2470-№125562
2536-№587675
2577-№572189
2728-№973323
2927-№035016
3017-№847218
3085-№252944
3125-№621894
3201-№269128
3229-№570573
3278-№206014
3294-№806205
3431-№929779
3480-№448429
3598-№714498
3621-№176794
3921-№381116
4100-№029121
4195-№056649
4419-№627960
4430-№099867
4444-№470439
4512-№657502
4745-№048355
4751-№750363
4885-№259578
4995-№637102
5014-№167310
5093-№642082
5149-№691376
5163-№410270
5265-№665198
5301-№265788
5346-№274827
5485-№137859
5555-№712399
5668-№556376
6096-№735002
6121-№107570
6141-№445171
6183-№731164
6219-№633673
6463-№857317
6495-№561965
6593-№544518
6617-№823382
6702-№572495
7149-№389675
7203-№533286
7221-№264016
7310-№337796
7515-№090907
7961-№649427
7973-№318437
8556-№881078
8583-№255270
8622-№917269
8683-№179488
8709-№586274
8716-№308939
8758-№679511
9030-№747874
9052-№203498
9172-№317877
9212-№738354
9298-№488156
9343-№835228
9548-№592467
9673-№413830
9761-№831245
9789-№582066
9811-№547663
9982-№391903